Mesa: _mesa_make_current()
Mesa: glCreateShader GL_VERTEX_SHADER
Mesa: glCompileShader 1
Mesa: glCreateShader GL_FRAGMENT_SHADER
Mesa: glCompileShader 2
Mesa: glCreateShader GL_VERTEX_SHADER
Mesa: glCompileShader 3
Mesa: glCreateShader GL_FRAGMENT_SHADER
Mesa: glCompileShader 4
Mesa: glCreateProgram
Mesa: glCreateProgram
Mesa: glGetError <-- GL_NONE
Mesa: glGetError <-- GL_NONE
Mesa: glGetError <-- GL_NONE
Mesa: glGetError <-- GL_NONE
Mesa: glLinkProgram 5
Mesa: glGetError <-- GL_NONE
Mesa: glLinkProgram 6
Mesa: glGetError <-- GL_NONE
Mesa: glGetError <-- GL_NONE
Mesa: glGetError <-- GL_NONE
Mesa: glGetError <-- GL_NONE
Mesa: glViewport 0 0 512 256
Mesa: glGetError <-- GL_NONE
Mesa: glUseProgram 6
Mesa: glGetError <-- GL_NONE
Mesa: glGenTextures 1
Mesa: glGetError <-- GL_NONE
Mesa: glBindTexture GL_TEXTURE_2D 1
Mesa: glGetError <-- GL_NONE
Mesa: glGetError <-- GL_NONE
Mesa: glGetError <-- GL_NONE
Mesa: glGetError <-- GL_NONE
Mesa: glGetError <-- GL_NONE
Mesa: glGetError <-- GL_NONE
Mesa: glGetError <-- GL_NONE
Mesa: glTexImage2D GL_TEXTURE_2D 0 GL_RGBA 512 256 1 0 GL_RGBA GL_UNSIGNED_BYTE 0xffffdc2711b0
Mesa: glGetError <-- GL_NONE
Mesa: glTexImage2D GL_TEXTURE_2D 1 GL_RGBA 256 128 1 0 GL_RGBA GL_UNSIGNED_BYTE 0xffffdc2d11b0
Mesa: glGetError <-- GL_NONE
Mesa: glTexImage2D GL_TEXTURE_2D 2 GL_RGBA 128 64 1 0 GL_RGBA GL_UNSIGNED_BYTE 0xffffdc2e91b0
Mesa: glGetError <-- GL_NONE
Mesa: glTexImage2D GL_TEXTURE_2D 3 GL_RGBA 64 32 1 0 GL_RGBA GL_UNSIGNED_BYTE 0xffffdc2ef1b0
Mesa: glGetError <-- GL_NONE
Mesa: glTexImage2D GL_TEXTURE_2D 4 GL_RGBA 32 16 1 0 GL_RGBA GL_UNSIGNED_BYTE 0xffffdc2f09b0
Mesa: glGetError <-- GL_NONE
Mesa: glTexImage2D GL_TEXTURE_2D 5 GL_RGBA 16 8 1 0 GL_RGBA GL_UNSIGNED_BYTE 0xffffdc2f0fb0
Mesa: glGetError <-- GL_NONE
Mesa: glTexImage2D GL_TEXTURE_2D 6 GL_RGBA 8 4 1 0 GL_RGBA GL_UNSIGNED_BYTE 0xffffdc2f1130
Mesa: glGetError <-- GL_NONE
Mesa: glTexImage2D GL_TEXTURE_2D 7 GL_RGBA 4 2 1 0 GL_RGBA GL_UNSIGNED_BYTE 0xffffdc2f1190
Mesa: glGetError <-- GL_NONE
Mesa: glGetError <-- GL_NONE
Mesa: glGetError <-- GL_NONE
Mesa: glGetError <-- GL_NONE
Mesa: glGetError <-- GL_NONE
Mesa: glGetError <-- GL_NONE
Mesa: glGetError <-- GL_NONE
Mesa: glClear 0x4000
Mesa: glGetError <-- GL_NONE
Mesa: glGenBuffers(1)
Mesa: glGetError <-- GL_NONE
Mesa: glBindBuffer(GL_ELEMENT_ARRAY_BUFFER, 1)
Mesa: glGetError <-- GL_NONE
Mesa: glBindBuffer(GL_ARRAY_BUFFER, 0)
Mesa: glGetError <-- GL_NONE
Mesa: glBufferData(GL_ELEMENT_ARRAY_BUFFER, 24, 0xffffdc2f1348, GL_STATIC_DRAW)
Mesa: glGetError <-- GL_NONE
Mesa: glDrawElements(GL_TRIANGLES, 6, GL_UNSIGNED_INT, (nil))
Mesa: glGetError <-- GL_NONE
Mesa: glReadPixels(512, 256, GL_RGBA, GL_UNSIGNED_BYTE, 0xffffdc2711b0)
Mesa: glGetError <-- GL_NONE
Mesa: glCopyTexSubImage2D GL_TEXTURE_2D 0 20 20 0 0 0 50 50
Mesa: glGetError <-- GL_NONE
Mesa: glCopyTexSubImage2D GL_TEXTURE_2D 2 20 20 0 0 0 20 20
Mesa: glGetError <-- GL_NONE
Mesa: glUseProgram 5
Mesa: glGetError <-- GL_NONE
Mesa: glGetError <-- GL_NONE
Mesa: glGetError <-- GL_NONE
Mesa: glGetError <-- GL_NONE
Mesa: glGetError <-- GL_NONE
Mesa: glGetError <-- GL_NONE
Mesa: glGetError <-- GL_NONE
Mesa: glGetError <-- GL_NONE
Mesa: glGetError <-- GL_NONE
Mesa: glClear 0x4000
Mesa: glGetError <-- GL_NONE
Mesa: glGenBuffers(1)
Mesa: glGetError <-- GL_NONE
Mesa: glBindBuffer(GL_ELEMENT_ARRAY_BUFFER, 2)
Mesa: glGetError <-- GL_NONE
Mesa: glBindBuffer(GL_ARRAY_BUFFER, 0)
Mesa: glGetError <-- GL_NONE
Mesa: glBufferData(GL_ELEMENT_ARRAY_BUFFER, 24, 0xffffdc2f1300, GL_STATIC_DRAW)
Mesa: glGetError <-- GL_NONE
Mesa: glDrawElements(GL_TRIANGLES, 6, GL_UNSIGNED_INT, (nil))
Mesa: glGetError <-- GL_NONE
Mesa: glReadPixels(512, 256, GL_RGBA, GL_UNSIGNED_BYTE, 0xffffdc1f11b0)
Mesa: glGetError <-- GL_NONE
Mesa: glGetError <-- GL_NONE
Mesa: glGetError <-- GL_NONE
Mesa: glGetError <-- GL_NONE
Mesa: glGetError <-- GL_NONE
Mesa: glGetError <-- GL_NONE
Mesa: glGetError <-- GL_NONE
Mesa: glGetError <-- GL_NONE
Mesa: glGetError <-- GL_NONE
Mesa: glClear 0x4000
Mesa: glGetError <-- GL_NONE
Mesa: glGenBuffers(1)
Mesa: glGetError <-- GL_NONE
Mesa: glBindBuffer(GL_ELEMENT_ARRAY_BUFFER, 3)
Mesa: glGetError <-- GL_NONE
Mesa: glBindBuffer(GL_ARRAY_BUFFER, 0)
Mesa: glGetError <-- GL_NONE
Mesa: glBufferData(GL_ELEMENT_ARRAY_BUFFER, 24, 0xffffdc2f1300, GL_STATIC_DRAW)
Mesa: glGetError <-- GL_NONE
Mesa: glDrawElements(GL_TRIANGLES, 6, GL_UNSIGNED_INT, (nil))
Mesa: glGetError <-- GL_NONE
Mesa: glReadPixels(256, 128, GL_RGBA, GL_UNSIGNED_BYTE, 0xffffdc2511b0)
Mesa: glGetError <-- GL_NONE
Mesa: glGetError <-- GL_NONE
Mesa: glGetError <-- GL_NONE
Mesa: glGetError <-- GL_NONE
Mesa: glGetError <-- GL_NONE
Mesa: glGetError <-- GL_NONE
Mesa: glGetError <-- GL_NONE
Mesa: glGetError <-- GL_NONE
Mesa: glGetError <-- GL_NONE
Mesa: glClear 0x4000
Mesa: glGetError <-- GL_NONE
Mesa: glGenBuffers(1)
Mesa: glGetError <-- GL_NONE
Mesa: glBindBuffer(GL_ELEMENT_ARRAY_BUFFER, 4)
Mesa: glGetError <-- GL_NONE
Mesa: glBindBuffer(GL_ARRAY_BUFFER, 0)
Mesa: glGetError <-- GL_NONE
Mesa: glBufferData(GL_ELEMENT_ARRAY_BUFFER, 24, 0xffffdc2f1300, GL_STATIC_DRAW)
Mesa: glGetError <-- GL_NONE
Mesa: glDrawElements(GL_TRIANGLES, 6, GL_UNSIGNED_INT, (nil))
Mesa: glGetError <-- GL_NONE
Mesa: glReadPixels(128, 64, GL_RGBA, GL_UNSIGNED_BYTE, 0xffffdc2691b0)
Mesa: glGetError <-- GL_NONE
Mesa: glGetError <-- GL_NONE
Mesa: glGetError <-- GL_NONE
Mesa: glGetError <-- GL_NONE
Mesa: glGetError <-- GL_NONE
Mesa: glGetError <-- GL_NONE
Mesa: glGetError <-- GL_NONE
Mesa: glGetError <-- GL_NONE
Mesa: glGetError <-- GL_NONE
Mesa: glClear 0x4000
Mesa: glGetError <-- GL_NONE
Mesa: glGenBuffers(1)
Mesa: glGetError <-- GL_NONE
Mesa: glBindBuffer(GL_ELEMENT_ARRAY_BUFFER, 5)
Mesa: glGetError <-- GL_NONE
Mesa: glBindBuffer(GL_ARRAY_BUFFER, 0)
Mesa: glGetError <-- GL_NONE
Mesa: glBufferData(GL_ELEMENT_ARRAY_BUFFER, 24, 0xffffdc2f1300, GL_STATIC_DRAW)
Mesa: glGetError <-- GL_NONE
Mesa: glDrawElements(GL_TRIANGLES, 6, GL_UNSIGNED_INT, (nil))
Mesa: glGetError <-- GL_NONE
Mesa: glReadPixels(64, 32, GL_RGBA, GL_UNSIGNED_BYTE, 0xffffdc26f1b0)
Mesa: glGetError <-- GL_NONE
Mesa: glGetError <-- GL_NONE
Mesa: glGetError <-- GL_NONE
Mesa: glGetError <-- GL_NONE
Mesa: glGetError <-- GL_NONE
Mesa: glGetError <-- GL_NONE
Mesa: glGetError <-- GL_NONE
Mesa: glGetError <-- GL_NONE
Mesa: glGetError <-- GL_NONE
Mesa: glClear 0x4000
Mesa: glGetError <-- GL_NONE
Mesa: glGenBuffers(1)
Mesa: glGetError <-- GL_NONE
Mesa: glBindBuffer(GL_ELEMENT_ARRAY_BUFFER, 6)
Mesa: glGetError <-- GL_NONE
Mesa: glBindBuffer(GL_ARRAY_BUFFER, 0)
Mesa: glGetError <-- GL_NONE
Mesa: glBufferData(GL_ELEMENT_ARRAY_BUFFER, 24, 0xffffdc2f1300, GL_STATIC_DRAW)
Mesa: glGetError <-- GL_NONE
Mesa: glDrawElements(GL_TRIANGLES, 6, GL_UNSIGNED_INT, (nil))
Mesa: glGetError <-- GL_NONE
Mesa: glReadPixels(32, 16, GL_RGBA, GL_UNSIGNED_BYTE, 0xffffdc2709b0)
Mesa: glGetError <-- GL_NONE
Mesa: glGetError <-- GL_NONE
Mesa: glGetError <-- GL_NONE
Mesa: glGetError <-- GL_NONE
Mesa: glGetError <-- GL_NONE
Mesa: glGetError <-- GL_NONE
Mesa: glGetError <-- GL_NONE
Mesa: glGetError <-- GL_NONE
Mesa: glGetError <-- GL_NONE
Mesa: glClear 0x4000
Mesa: glGetError <-- GL_NONE
Mesa: glGenBuffers(1)
Mesa: glGetError <-- GL_NONE
Mesa: glBindBuffer(GL_ELEMENT_ARRAY_BUFFER, 7)
Mesa: glGetError <-- GL_NONE
Mesa: glBindBuffer(GL_ARRAY_BUFFER, 0)
Mesa: glGetError <-- GL_NONE
Mesa: glBufferData(GL_ELEMENT_ARRAY_BUFFER, 24, 0xffffdc2f1300, GL_STATIC_DRAW)
Mesa: glGetError <-- GL_NONE
Mesa: glDrawElements(GL_TRIANGLES, 6, GL_UNSIGNED_INT, (nil))
Mesa: glGetError <-- GL_NONE
Mesa: glReadPixels(16, 8, GL_RGBA, GL_UNSIGNED_BYTE, 0xffffdc270fb0)
Mesa: glGetError <-- GL_NONE
Mesa: glGetError <-- GL_NONE
Mesa: glGetError <-- GL_NONE
Mesa: glGetError <-- GL_NONE
Mesa: glGetError <-- GL_NONE
Mesa: glGetError <-- GL_NONE
Mesa: glGetError <-- GL_NONE
Mesa: glGetError <-- GL_NONE
Mesa: glGetError <-- GL_NONE
Mesa: glClear 0x4000
Mesa: glGetError <-- GL_NONE
Mesa: glGenBuffers(1)
Mesa: glGetError <-- GL_NONE
Mesa: glBindBuffer(GL_ELEMENT_ARRAY_BUFFER, 8)
Mesa: glGetError <-- GL_NONE
Mesa: glBindBuffer(GL_ARRAY_BUFFER, 0)
Mesa: glGetError <-- GL_NONE
Mesa: glBufferData(GL_ELEMENT_ARRAY_BUFFER, 24, 0xffffdc2f1300, GL_STATIC_DRAW)
Mesa: glGetError <-- GL_NONE
Mesa: glDrawElements(GL_TRIANGLES, 6, GL_UNSIGNED_INT, (nil))
Mesa: glGetError <-- GL_NONE
Mesa: glReadPixels(8, 4, GL_RGBA, GL_UNSIGNED_BYTE, 0xffffdc271130)
Mesa: glGetError <-- GL_NONE
Mesa: glGetError <-- GL_NONE
Mesa: glGetError <-- GL_NONE
Mesa: glGetError <-- GL_NONE
Mesa: glGetError <-- GL_NONE
Mesa: glGetError <-- GL_NONE
Mesa: glGetError <-- GL_NONE
Mesa: glGetError <-- GL_NONE
Mesa: glGetError <-- GL_NONE
Mesa: glClear 0x4000
Mesa: glGetError <-- GL_NONE
Mesa: glGenBuffers(1)
Mesa: glGetError <-- GL_NONE
Mesa: glBindBuffer(GL_ELEMENT_ARRAY_BUFFER, 9)
Mesa: glGetError <-- GL_NONE
Mesa: glBindBuffer(GL_ARRAY_BUFFER, 0)
Mesa: glGetError <-- GL_NONE
Mesa: glBufferData(GL_ELEMENT_ARRAY_BUFFER, 24, 0xffffdc2f1300, GL_STATIC_DRAW)
Mesa: glGetError <-- GL_NONE
Mesa: glDrawElements(GL_TRIANGLES, 6, GL_UNSIGNED_INT, (nil))
Mesa: glGetError <-- GL_NONE
Mesa: glReadPixels(4, 2, GL_RGBA, GL_UNSIGNED_BYTE, 0xffffdc271190)
Mesa: glGetError <-- GL_NONE
